{
"type": "FeatureCollection",
"name": "cobertura_cm11",
"crs": { "type": "name", "properties": { "name": "urn:ogc:def:crs:EPSG::32721" } },
"features": [
{ "type": "Feature", "properties": { "OBJECTID": 13, "SHAPE_ID": 0.0, "AREA": 7567727.9790500002, "PERIMETER": 11518.6686909, "CEN_MUNIC": "Centro Municipal 11", "NOMBRE": "ÑU GUASU", "Shape_Leng": 11518.6687494, "Shape_Area": 7567727.9795700004 }, "geometry": { "type": "MultiPolygon", "coordinates": [ [ [ [ 442844.543700000271201, 7206534.837799999863 ], [ 442958.05599999987, 7206530.7509 ], [ 443719.9945, 7206531.40099999961 ], [ 444457.259600000455976, 7206516.6869 ], [ 444703.808400000445545, 7206503.927099999972 ], [ 444818.796799999661744, 7206481.276899999939 ], [ 445153.9413, 7206420.757199999876 ], [ 445873.573900000192225, 7206283.5042 ], [ 446030.026100000366569, 7206235.3228 ], [ 446032.919300000183284, 7206233.78699999955 ], [ 446032.410000000149012, 7206230.3261 ], [ 446031.448900000192225, 7206226.8793 ], [ 446030.189500000327826, 7206223.973799999803 ], [ 446027.339200000278652, 7206221.5102 ], [ 446024.979199999943, 7206219.17679999955 ], [ 446023.284799999557436, 7206216.6825 ], [ 446023.339999999850988, 7206215.6661 ], [ 446022.85840000025928, 7206212.142699999735 ], [ 446022.453700000420213, 7206206.478799999692 ], [ 446022.190799999982, 7206201.2023 ], [ 446021.885700000450015, 7206198.313799999654 ], [ 446021.267199999652803, 7206194.9928 ], [ 446020.982099999673665, 7206191.761699999683 ], [ 446020.899899999611, 7206188.635599999689 ], [ 446020.340699999593198, 7206184.75299999956 ], [ 446019.250199999660254, 7206181.3868 ], [ 446018.6096, 7206177.531399999745 ], [ 446017.099299999885261, 7206173.8201 ], [ 446013.883899999782443, 7206169.102099999785 ], [ 446010.920300000347197, 7206164.3973 ], [ 446009.596300000324845, 7206160.2433 ], [ 446009.0614, 7206156.9215 ], [ 446007.375699999742, 7206153.585 ], [ 446006.500799999572337, 7206150.456699999981 ], [ 446005.066399999894202, 7206146.642099999823 ], [ 446003.738300000317395, 7206143.9215 ], [ 446001.927799999713898, 7206141.1056 ], [ 446000.788099999539554, 7206137.906 ], [ 445999.815000000409782, 7206134.7953 ], [ 445998.406399999745, 7206131.4148 ], [ 445996.237300000153482, 7206128.654099999927 ], [ 445994.54700000025332, 7206121.7241 ], [ 445994.78899999987, 7206118.252399999648 ], [ 445993.138500000350177, 7206114.93489999976 ], [ 445993.166699999943, 7206111.4981 ], [ 445991.10869999975, 7206106.75829999987 ], [ 445991.125099999830127, 7206086.462399999611 ], [ 445990.801799999549985, 7206078.67399999965 ], [ 445990.770999999716878, 7206075.427 ], [ 445990.183299999684095, 7206072.4308 ], [ 445988.5795, 7206068.6162 ], [ 445987.5027, 7206065.397199999541 ], [ 445986.891800000332296, 7206062.3677 ], [ 445985.621100000105798, 7206058.959599999711 ], [ 445984.495000000111759, 7206056.1518 ], [ 445982.53940000012517, 7206051.683799999766 ], [ 445980.870199999772012, 7206048.4121 ], [ 445977.398199999704957, 7206040.6002 ], [ 445974.289499999955, 7206034.003899999894 ], [ 445971.6376, 7206030.169599999674 ], [ 445968.208599999547005, 7206027.3656 ], [ 445968.390100000426173, 7206023.870099999942 ], [ 445967.582000000402331, 7206020.8815 ], [ 445965.527200000360608, 7206017.7854 ], [ 445964.561599999666214, 7206014.25499999989 ], [ 445962.580099999905, 7206010.6688 ], [ 445960.307500000111759, 7206007.4592 ], [ 445958.2933, 7206005.0705 ], [ 445956.065600000321865, 7206001.47559999954 ], [ 445953.741499999538064, 7205996.9517 ], [ 445951.6085, 7205994.5497 ], [ 445950.196899999864399, 7205991.6577 ], [ 445947.481300000101328, 7205987.8739 ], [ 445945.541600000113249, 7205985.347699999809 ], [ 445943.224999999627471, 7205981.8397 ], [ 445939.690999999642372, 7205975.7955 ], [ 445938.492200000211596, 7205972.563199999742 ], [ 445936.277300000190735, 7205969.637299999595 ], [ 445935.493200000375509, 7205966.6083 ], [ 445933.877899999730289, 7205963.7466 ], [ 445931.100399999879301, 7205959.980499999598 ], [ 445927.318799999542534, 7205953.189899999648 ], [ 445925.67090000025928, 7205950.5444 ], [ 445924.384200000204146, 7205947.096099999733 ], [ 445923.388500000350177, 7205944.00569999963 ], [ 445922.8174, 7205940.2757 ], [ 445920.16370000038296, 7205936.4263 ], [ 445918.6754, 7205934.263 ], [ 445916.500199999660254, 7205930.899 ], [ 445914.5592, 7205927.2082 ], [ 445912.411600000225008, 7205923.5415 ], [ 445910.431400000117719, 7205919.7609 ], [ 445908.116899999789894, 7205917.288499999791 ], [ 445906.809600000269711, 7205914.258899999782 ], [ 445904.903900000266731, 7205910.427 ], [ 445902.919200000353158, 7205907.5455 ], [ 445900.968000000342727, 7205903.5185 ], [ 445898.889499999582767, 7205901.018699999899 ], [ 445897.534900000318885, 7205898.0207 ], [ 445895.878999999724329, 7205894.504499999806 ], [ 445893.5899, 7205891.4253 ], [ 445892.161100000143051, 7205889.286 ], [ 445890.405199999921, 7205886.4325 ], [ 445888.459099999628961, 7205883.5716 ], [ 445886.329, 7205881.27699999977 ], [ 445883.508100000210106, 7205879.245099999942 ], [ 445880.654199999757111, 7205877.542899999768 ], [ 445877.591199999675155, 7205875.5519 ], [ 445873.154299999587238, 7205873.9512 ], [ 445870.137799999676645, 7205871.597199999727 ], [ 445867.423100000247359, 7205865.984 ], [ 445866.594899999909, 7205861.984699999914 ], [ 445866.400700000114739, 7205860.6812 ], [ 445865.06180000025779, 7205855.860299999826 ], [ 445863.29, 7205853.2648 ], [ 445862.986999999731779, 7205849.19579999987 ], [ 445862.291899999603629, 7205845.290599999949 ], [ 445859.148199999704957, 7205842.8399 ], [ 445855.971699999645352, 7205841.158099999651 ], [ 445855.268099999987, 7205838.2104 ], [ 445854.729299999773502, 7205835.216 ], [ 445854.331799999810755, 7205830.6628 ], [ 445853.540900000371039, 7205827.0322 ], [ 445852.892599999905, 7205822.3595 ], [ 445851.528199999593198, 7205817.97599999979 ], [ 445849.792500000447035, 7205814.5641 ], [ 445847.296699999831617, 7205808.343299999833 ], [ 445846.579300000332296, 7205804.687 ], [ 445844.761800000444055, 7205801.324199999683 ], [ 445840.254099999554455, 7205794.2028 ], [ 445838.4199, 7205791.598199999891 ], [ 445837.740199999883771, 7205787.509399999864 ], [ 445836.199900000356138, 7205785.2898 ], [ 445834.2023, 7205782.230299999937 ], [ 445833.0515, 7205779.264299999923 ], [ 445830.747700000181794, 7205774.9027 ], [ 445829.688199999742, 7205772.0092 ], [ 445828.300200000405312, 7205768.6962 ], [ 445825.322800000198185, 7205765.1085 ], [ 445823.6957, 7205762.131299999543 ], [ 445822.239900000393391, 7205758.268899999559 ], [ 445820.533699999563396, 7205755.722799999639 ], [ 445818.217899999581277, 7205753.6282 ], [ 445817.649299999698997, 7205749.841 ], [ 445816.172899999655783, 7205746.547299999744 ], [ 445813.193699999712408, 7205743.998599999584 ], [ 445811.059899999760091, 7205741.306699999608 ], [ 445808.4665, 7205738.2208 ], [ 445807.317499999888241, 7205732.738499999978 ], [ 445805.905899999663234, 7205729.882399999537 ], [ 445804.269899999722838, 7205726.0673 ], [ 445802.15500000026077, 7205723.366299999878 ], [ 445800.780600000172853, 7205720.178899999708 ], [ 445799.892400000244379, 7205716.3448 ], [ 445798.298700000159442, 7205713.7489 ], [ 445796.881099999882281, 7205709.65 ], [ 445795.080199999734759, 7205706.259899999946 ], [ 445794.135300000198185, 7205702.7242 ], [ 445792.620199999772012, 7205699.863099999726 ], [ 445790.9051, 7205695.48909999989 ], [ 445788.7412, 7205692.7001 ], [ 445787.3399, 7205689.427699999884 ], [ 445786.580400000326335, 7205686.3628 ], [ 445784.561099999584258, 7205682.79079999961 ], [ 445783.139299999923, 7205679.4471 ], [ 445781.719399999827147, 7205675.1528 ], [ 445780.19440000038594, 7205672.5628 ], [ 445778.509800000116229, 7205669.9795 ], [ 445775.646300000138581, 7205668.9307 ], [ 445773.891800000332296, 7205666.4632 ], [ 445772.5208, 7205663.706899999641 ], [ 445770.925300000235438, 7205660.720099999569 ], [ 445769.5888, 7205657.1063 ], [ 445768.250900000333786, 7205653.9308 ], [ 445767.247100000269711, 7205651.1429 ], [ 445765.383500000461936, 7205647.537899999879 ], [ 445764.3273, 7205644.2455 ], [ 445762.953599999658763, 7205640.405299999751 ], [ 445761.119400000199676, 7205634.0162 ], [ 445760.998100000433624, 7205630.800099999644 ], [ 445759.758799999952, 7205627.894299999811 ], [ 445755.731100000441074, 7205622.297399999574 ], [ 445753.183699999936, 7205620.025299999863 ], [ 445751.949099999852479, 7205616.9789 ], [ 445752.550099999643862, 7205613.952899999917 ], [ 445754.224799999967, 7205611.30599999987 ], [ 445757.141099999658763, 7205608.740699999966 ], [ 445757.958800000138581, 7205604.773599999957 ], [ 445757.9386, 7205601.5996 ], [ 445757.2478, 7205597.94039999973 ], [ 445755.792899999767542, 7205594.110799999908 ], [ 445754.589599999599159, 7205591.2892 ], [ 445754.114400000311434, 7205588.0849 ], [ 445753.275000000372529, 7205584.7992 ], [ 445751.838000000454485, 7205580.6933 ], [ 445750.632899999619, 7205578.095499999821 ], [ 445748.718100000172853, 7205573.2839 ], [ 445748.19579999987, 7205570.1683 ], [ 445745.678299999795854, 7205566.579599999823 ], [ 445743.88399999961, 7205562.9641 ], [ 445741.87540000025183, 7205560.580599999987 ], [ 445740.8448, 7205557.3995 ], [ 445739.478400000371039, 7205554.0361 ], [ 445737.529099999927, 7205550.807599999942 ], [ 445736.510800000280142, 7205547.8717 ], [ 445734.040300000458956, 7205545.4506 ], [ 445731.030299999751151, 7205543.9188 ], [ 445729.515599999576807, 7205541.25499999989 ], [ 445725.254599999636412, 7205535.696499999613 ], [ 445722.835799999535084, 7205533.534 ], [ 445720.977599999867, 7205530.330199999735 ], [ 445719.362300000153482, 7205526.8941 ], [ 445717.597699999809265, 7205523.8426 ], [ 445715.949300000444055, 7205521.2186 ], [ 445714.506099999882281, 7205517.0186 ], [ 445712.2209, 7205513.763399999589 ], [ 445710.0482, 7205511.390399999917 ], [ 445708.59250000026077, 7205507.9301 ], [ 445706.340200000442564, 7205505.4769 ], [ 445703.922199999914, 7205502.5613 ], [ 445702.220800000242889, 7205499.889299999923 ], [ 445702.040199999697506, 7205496.3698 ], [ 445699.604600000195205, 7205492.766699999571 ], [ 445699.340300000272691, 7205489.299599999562 ], [ 445698.061300000175834, 7205485.8733 ], [ 445696.606700000353158, 7205482.5887 ], [ 445694.846699999645352, 7205479.863099999726 ], [ 445695.650399999693036, 7205476.620799999684 ], [ 445694.919700000435114, 7205475.493499999866 ], [ 445693.402599999681115, 7205473.150399999693 ], [ 445690.7023, 7205471.1912 ], [ 445687.8596, 7205469.561499999836 ], [ 445685.909199999645352, 7205466.948599999771 ], [ 445682.5822, 7205464.4515 ], [ 445679.707600000314415, 7205458.3574 ], [ 445677.618099999614, 7205456.1078 ], [ 445675.498200000263751, 7205452.6605 ], [ 445673.498599999584258, 7205445.1918 ], [ 445672.937800000421703, 7205441.792299999855 ], [ 445671.431599999777973, 7205438.7636 ], [ 445668.6639, 7205433.977199999616 ], [ 445666.884700000286102, 7205431.069199999794 ], [ 445664.621199999936, 7205426.0195 ], [ 445661.906899999827147, 7205418.460699999705 ], [ 445660.278099999763072, 7205415.6441 ], [ 445655.973299999721348, 7205411.074699999765 ], [ 445653.985899999738, 7205409.33299999963 ], [ 445652.098799999803305, 7205406.1578 ], [ 445652.349999999627471, 7205403.0709 ], [ 445652.081299999728799, 7205399.880099999718 ], [ 445650.019299999810755, 7205397.9889 ], [ 445646.017099999822676, 7205396.0705 ], [ 445643.2478, 7205395.31699999981 ], [ 445640.723399999551475, 7205393.659099999815 ], [ 445639.256299999542534, 7205391.1902 ], [ 445637.678399999625981, 7205388.706399999559 ], [ 445635.649500000290573, 7205386.00019999966 ], [ 445634.689899999648333, 7205383.240299999714 ], [ 445632.61710000038147, 7205380.9259 ], [ 445631.398199999704957, 7205378.663399999961 ], [ 445630.154799999669194, 7205376.1579 ], [ 445629.210699999704957, 7205373.6562 ], [ 445628.559299999848008, 7205370.7991 ], [ 445627.404299999587238, 7205367.586199999787 ], [ 445626.424700000323355, 7205364.10099999979 ], [ 445625.877000000327826, 7205360.7039 ], [ 445624.799499999731779, 7205356.985399999656 ], [ 445622.955299999564886, 7205352.326799999923 ], [ 445620.355600000359118, 7205346.797299999744 ], [ 445618.769299999810755, 7205342.997 ], [ 445617.067900000140071, 7205340.775 ], [ 445615.589999999850988, 7205338.6496 ], [ 445614.321000000461936, 7205336.2001 ], [ 445613.154699999839067, 7205333.5464 ], [ 445612.072999999858439, 7205330.7745 ], [ 445609.977099999785423, 7205327.9687 ], [ 445608.963000000454485, 7205325.3826 ], [ 445603.253600000403821, 7205313.620099999942 ], [ 445601.056200000457466, 7205308.5718 ], [ 445599.157100000418723, 7205304.0256 ], [ 445594.489199999719858, 7205294.3786 ], [ 445592.880800000391901, 7205289.658099999651 ], [ 445591.234799999744, 7205285.559299999848 ], [ 445589.318400000222027, 7205280.03 ], [ 445585.747899999842048, 7205270.4641 ], [ 445584.116399999707937, 7205266.9264 ], [ 445582.443699999712408, 7205263.9215 ], [ 445581.583499999716878, 7205261.7032 ], [ 445580.479799999855459, 7205259.030799999833 ], [ 445573.765100000426173, 7205248.156499999575 ], [ 445571.9923, 7205245.6928 ], [ 445569.570600000210106, 7205242.867499999702 ], [ 445566.161500000394881, 7205235.99459999986 ], [ 445564.886800000444055, 7205232.811499999836 ], [ 445563.746799999848008, 7205230.232599999756 ], [ 445562.042999999597669, 7205226.7619 ], [ 445560.441899999976, 7205224.16299999971 ], [ 445559.0493, 7205221.6518 ], [ 445557.349499999545515, 7205217.791799999774 ], [ 445556.597, 7205215.319 ], [ 445554.302500000223517, 7205210.141499999911 ], [ 445552.050599999725819, 7205207.618499999866 ], [ 445550.270999999716878, 7205204.768 ], [ 445551.890399999917, 7205202.849899999797 ], [ 445549.068699999712408, 7205197.4987 ], [ 445546.812099999748, 7205195.3912 ], [ 445544.022699999623001, 7205194.475499999709 ], [ 445543.091400000266731, 7205192.4641 ], [ 445540.367499999701977, 7205186.7854 ], [ 445540.0197, 7205183.7406 ], [ 445539.351300000213087, 7205180.524199999869 ], [ 445539.138600000180304, 7205177.5455 ], [ 445537.755099999718368, 7205173.7193 ], [ 445536.4523, 7205171.126699999906 ], [ 445535.392, 7205168.740899999626 ], [ 445533.729299999773502, 7205165.4276 ], [ 445531.912700000219047, 7205163.3398 ], [ 445532.277599999681115, 7205157.8415 ], [ 445530.024000000208616, 7205154.592 ], [ 445528.011199999600649, 7205150.960599999875 ], [ 445525.949799999594688, 7205146.012699999847 ], [ 445524.1414, 7205143.322499999776 ], [ 445521.872700000181794, 7205141.1924 ], [ 445519.723899999633431, 7205138.4515 ], [ 445518.28870000038296, 7205134.110399999656 ], [ 445517.192300000227988, 7205131.1408 ], [ 445513.850999999791384, 7205125.1206 ], [ 445515.6809, 7205125.720499999821 ], [ 445512.627199999988, 7205122.707399999723 ], [ 445510.754200000315905, 7205119.2872 ], [ 445507.670099999755621, 7205118.3397 ], [ 445505.387000000104308, 7205116.011199999601 ], [ 445502.705799999646842, 7205113.6682 ], [ 445501.525000000372529, 7205110.7773 ], [ 445499.265800000168383, 7205107.94099999964 ], [ 445497.303999999538064, 7205105.1719 ], [ 445495.781499999575317, 7205102.1716 ], [ 445493.879499999806285, 7205099.610399999656 ], [ 445491.51630000025034, 7205096.847799999639 ], [ 445489.92960000038147, 7205093.6304 ], [ 445490.019600000232458, 7205089.764899999835 ], [ 445489.450899999588728, 7205085.999699999578 ], [ 445486.469899999909, 7205083.77 ], [ 445483.2615, 7205084.5773 ], [ 445479.878499999642372, 7205085.230899999849 ], [ 445477.456500000320375, 7205083.058799999766 ], [ 445475.2653, 7205080.848299999721 ], [ 445472.308799999766052, 7205074.1369 ], [ 445471.558199999853969, 7205070.867399999872 ], [ 445469.139399999752641, 7205068.4663 ], [ 445467.185399999842048, 7205065.7662 ], [ 445465.609799999744, 7205063.007199999876 ], [ 445464.627500000409782, 7205059.4462 ], [ 445463.389999999664724, 7205055.916699999943 ], [ 445461.668200000189245, 7205053.3063 ], [ 445459.681499999948, 7205050.7911 ], [ 445457.940399999730289, 7205048.1496 ], [ 445456.8174, 7205045.1918 ], [ 445456.064799999818206, 7205042.185399999842 ], [ 445454.763799999840558, 7205038.3748 ], [ 445451.758600000292063, 7205031.7702 ], [ 445448.077499999664724, 7205021.8705 ], [ 445447.075899999588728, 7205018.497899999842 ], [ 445446.340499999933, 7205014.7449 ], [ 445445.047299999744, 7205011.4231 ], [ 445443.5131, 7205008.0251 ], [ 445442.676300000399351, 7205005.172399999574 ], [ 445441.309000000357628, 7205002.1638 ], [ 445440.339300000108778, 7204998.927199999802 ], [ 445439.724799999967, 7204995.758 ], [ 445439.540599999949, 7204992.472699999809 ], [ 445437.963999999687076, 7204985.506699999794 ], [ 445437.775000000372529, 7204982.3854 ], [ 445437.791899999603629, 7204978.945 ], [ 445438.411100000143051, 7204975.365799999796 ], [ 445438.548499999567866, 7204972.3311 ], [ 445438.5515, 7204968.763399999589 ], [ 445437.680599999614, 7204965.526899999939 ], [ 445437.158300000242889, 7204961.6671 ], [ 445437.190600000321865, 7204957.393899999559 ], [ 445437.321999999694526, 7204954.335799999535 ], [ 445437.089300000108778, 7204950.9022 ], [ 445436.542399999685585, 7204947.9132 ], [ 445436.017599999905, 7204944.0509 ], [ 445434.786199999973, 7204938.632399999537 ], [ 445433.465099999681115, 7204933.169099999592 ], [ 445432.909799999557436, 7204928.923499999568 ], [ 445431.560499999672174, 7204925.338 ], [ 445430.396599999628961, 7204921.781299999915 ], [ 445429.059600000269711, 7204918.9807 ], [ 445428.136099999770522, 7204915.966099999845 ], [ 445426.639600000344217, 7204913.04899999965 ], [ 445425.331600000150502, 7204910.099799999967 ], [ 445423.344100000336766, 7204907.342899999581 ], [ 445421.8695, 7204904.7784 ], [ 445420.010200000368059, 7204902.3293 ], [ 445417.368300000205636, 7204899.146399999969 ], [ 445415.073400000110269, 7204896.7784 ], [ 445413.773400000296533, 7204894.1346 ], [ 445411.5318, 7204889.017099999823 ], [ 445410.263000000268221, 7204885.4433 ], [ 445409.4594, 7204882.5673 ], [ 445407.746500000357628, 7204878.8666 ], [ 445406.648199999704957, 7204875.783099999651 ], [ 445405.764700000174344, 7204871.9943 ], [ 445404.799999999813735, 7204868.93769999966 ], [ 445402.882699999958, 7204866.3688 ], [ 445401.330299999564886, 7204862.8024 ], [ 445400.125199999660254, 7204859.517599999905 ], [ 445398.341300000436604, 7204856.6036 ], [ 445397.2652000002563, 7204853.2121 ], [ 445396.242600000463426, 7204849.2399 ], [ 445394.5932, 7204845.8775 ], [ 445392.880300000309944, 7204842.980399999768 ], [ 445391.146200000308454, 7204839.4912 ], [ 445389.207000000402331, 7204836.5164 ], [ 445387.783900000154972, 7204833.84499999974 ], [ 445386.261300000362098, 7204830.7575 ], [ 445384.654099999927, 7204828.1988 ], [ 445383.765999999828637, 7204825.34399999958 ], [ 445382.560600000433624, 7204821.89699999988 ], [ 445378.881099999882281, 7204814.7071 ], [ 445377.337299999780953, 7204812.0849 ], [ 445375.095800000242889, 7204808.5957 ], [ 445373.5943, 7204805.6985 ], [ 445372.00829999987, 7204802.2093 ], [ 445370.718399999663234, 7204798.825799999759 ], [ 445369.661000000312924, 7204796.69 ], [ 445368.476800000295043, 7204794.0466 ], [ 445366.298700000159442, 7204789.6692 ], [ 445365.538099999539554, 7204787.7473 ], [ 445363.437099999748, 7204783.503399999812 ], [ 445361.160000000149012, 7204777.784699999727 ], [ 445360.081500000320375, 7204774.0629 ], [ 445358.3717, 7204767.397099999711 ], [ 445358.130099999718368, 7204765.358199999668 ], [ 445358.052299999631941, 7204763.179899999872 ], [ 445357.770200000144541, 7204761.1473 ], [ 445356.0433, 7204757.2045 ], [ 445355.483900000341237, 7204755.2253 ], [ 445354.561700000427663, 7204753.0355 ], [ 445353.655299999751151, 7204751.0301 ], [ 445353.440100000239909, 7204749.0508 ], [ 445353.375599999912, 7204747.2437 ], [ 445353.422399999573827, 7204744.7418 ], [ 445352.149299999698997, 7204743.199099999852 ], [ 445351.358099999837577, 7204741.211799999699 ], [ 445350.984699999914, 7204739.195 ], [ 445350.371000000275671, 7204732.6703 ], [ 445350.759399999864399, 7204713.349399999715 ], [ 445351.807500000111759, 7204709.3266 ], [ 445352.919300000183284, 7204707.6249 ], [ 445353.270399999804795, 7204705.2571 ], [ 445353.170400000177324, 7204702.9692 ], [ 445353.632500000298023, 7204700.998599999584 ], [ 445353.857599999755621, 7204692.7329 ], [ 445354.901200000196695, 7204690.998599999584 ], [ 445356.152200000360608, 7204689.3699 ], [ 445358.238099999725819, 7204685.7871 ], [ 445359.061599999666214, 7204683.815799999982 ], [ 445359.658599999733269, 7204681.8195 ], [ 445360.069099999964, 7204679.9351 ], [ 445360.127600000239909, 7204677.7779 ], [ 445359.658599999733269, 7204675.326899999753 ], [ 445359.528, 7204673.479899999686 ], [ 445359.602699999697506, 7204668.7971 ], [ 445359.490699999966, 7204666.8941 ], [ 445359.210900000296533, 7204664.9724 ], [ 445358.696399999782443, 7204663.080099999905 ], [ 445358.058699999936, 7204661.076799999923 ], [ 445357.830199999734759, 7204659.0909 ], [ 445357.915900000371039, 7204654.649799999781 ], [ 445357.090099999681115, 7204652.6993 ], [ 445356.670699999667704, 7204650.722799999639 ], [ 445356.094100000336766, 7204648.4813 ], [ 445355.505400000140071, 7204646.5403 ], [ 445354.212299999780953, 7204644.9121 ], [ 445353.960900000296533, 7204642.9072 ], [ 445354.0367, 7204641.2565 ], [ 445354.0367, 7204638.8141 ], [ 445352.483099999837577, 7204637.221599999815 ], [ 445350.572700000368059, 7204636.275899999775 ], [ 445348.816700000315905, 7204635.238199999556 ], [ 445347.167000000365078, 7204633.950299999677 ], [ 445346.970599999651313, 7204631.931599999778 ], [ 445345.7198, 7204630.4013 ], [ 445344.873700000345707, 7204628.4698 ], [ 445344.714100000448525, 7204626.4424 ], [ 445344.793899999931, 7204624.319299999624 ], [ 445345.430200000293553, 7204622.2514 ], [ 445345.591400000266731, 7204620.12 ], [ 445344.937599999830127, 7204618.173299999908 ], [ 445343.628600000403821, 7204616.513199999928 ], [ 445342.27170000039041, 7204615.028599999845 ], [ 445342.367499999701977, 7204610.542799999937 ], [ 445343.1765, 7204608.7997 ], [ 445344.347, 7204606.4243 ], [ 445347.300200000405312, 7204603.471 ], [ 445350.428999999538064, 7204601.9066 ], [ 445352.280799999833107, 7204600.5338 ], [ 445353.291400000452995, 7204598.8129 ], [ 445354.563500000163913, 7204597.4528 ], [ 445356.080099999905, 7204595.649 ], [ 445356.894199999981, 7204594.1484 ], [ 445358.0915, 7204592.0732 ], [ 445359.57079999987, 7204590.3486 ], [ 445360.645600000396371, 7204588.4335 ], [ 445361.887500000186265, 7204586.588299999945 ], [ 445362.9117, 7204584.397599999793 ], [ 445370.823099999688566, 7204552.498499999754 ], [ 445371.083700000308454, 7204543.488099999726 ], [ 445111.67200000025332, 7204456.1633 ], [ 444899.47620000038296, 7204391.3212 ], [ 444787.185499999672174, 7204357.023199999705 ], [ 444707.078599999658763, 7204330.9473 ], [ 444678.183699999936, 7204322.020499999635 ], [ 444577.8739, 7204290.5415 ], [ 444445.380300000309944, 7204249.4309 ], [ 444285.440000000409782, 7204194.37 ], [ 444137.919499999843538, 7204137.586699999869 ], [ 444058.235999999567866, 7204107.3057 ], [ 444007.150000000372529, 7204080.88 ], [ 443953.459099999628961, 7204039.621199999936 ], [ 443898.895700000226498, 7203995.550699999556 ], [ 443872.138600000180304, 7203979.8113 ], [ 443819.1491, 7203951.480299999937 ], [ 443620.910000000149012, 7203849.91 ], [ 443551.841799999587238, 7203920.0056 ], [ 443457.936200000345707, 7204013.516699999571 ], [ 443381.785799999721348, 7204088.4833 ], [ 443356.139299999923, 7204110.973399999551 ], [ 443283.934600000269711, 7204158.3207 ], [ 443185.688799999654293, 7204219.8723 ], [ 443121.375300000421703, 7204260.512099999934 ], [ 443042.463000000454485, 7204309.4378 ], [ 442906.339300000108778, 7204406.4999 ], [ 442873.799999999813735, 7204434.23 ], [ 442744.882000000216067, 7204538.1446 ], [ 442682.474299999885261, 7204589.914599999785 ], [ 442609.126199999824166, 7204649.98 ], [ 442585.791799999773502, 7204682.399199999869 ], [ 442529.291799999773502, 7204772.882699999958 ], [ 442429.297600000165403, 7204926.0652 ], [ 442363.343999999575317, 7205009.7482 ], [ 442315.119900000281632, 7205074.283499999903 ], [ 442278.242600000463426, 7205117.543399999849 ], [ 442183.921900000423193, 7205235.9762 ], [ 442051.660199999809265, 7205407.2428 ], [ 442013.719100000336766, 7205455.821499999613 ], [ 441969.75, 7205504.7548 ], [ 441867.628399999812245, 7205625.3151 ], [ 441756.996500000357628, 7205753.6764 ], [ 441680.33, 7205840.0 ], [ 441764.929700000211596, 7205920.552799999714 ], [ 441848.3991, 7205999.2849 ], [ 441901.71, 7206047.324799999595 ], [ 442030.237099999561906, 7206127.3945 ], [ 442120.833999999798834, 7206177.33899999969 ], [ 442228.85329999961, 7206219.1529 ], [ 442272.990299999713898, 7206233.0909 ], [ 442369.3947, 7206262.128299999982 ], [ 442448.3766, 7206294.650299999863 ], [ 442621.439799999818206, 7206364.3402 ], [ 442744.8377, 7206416.115 ], [ 442740.452499999664724, 7206418.659 ], [ 442609.041500000283122, 7206501.346199999563 ], [ 442581.249699999578297, 7206519.1369 ], [ 442635.082799999975, 7206529.3689 ], [ 442672.818599999882281, 7206532.6502 ], [ 442844.543700000271201, 7206534.837799999863 ] ] ] ] } }
]
}
