{
"type": "FeatureCollection",
"name": "cobertura_cm6",
"crs": { "type": "name", "properties": { "name": "urn:ogc:def:crs:OGC:1.3:CRS84" } },
"features": [
{ "type": "Feature", "properties": { "OBJECTID": 5, "SHAPE_ID": 262.0, "AREA": 5693000.943, "PERIMETER": 10971.52, "CEN_MUNIC": "Centro Municipal 6", "NOMBRE": "JERUTI", "Shape_Leng": 10971.520192399999, "Shape_Area": 5693000.9319399996 }, "geometry": { "type": "MultiPolygon", "coordinates": [ [ [ [ -57.646978859019548, -25.286448903208505 ], [ -57.647537669821176, -25.287230208551499 ], [ -57.64788611342567, -25.287730468553825 ], [ -57.648335833426707, -25.288367900041951 ], [ -57.649012791830337, -25.289324794810312 ], [ -57.649666331439676, -25.290241646633103 ], [ -57.650172041422799, -25.290939613332835 ], [ -57.650684851578106, -25.2916781825611 ], [ -57.651139255671538, -25.292325456044551 ], [ -57.651408971949706, -25.292709647652497 ], [ -57.652039417703698, -25.293582104611058 ], [ -57.65262487380717, -25.294398491342662 ], [ -57.653154888072208, -25.295133848751284 ], [ -57.653629459415832, -25.29578817839829 ], [ -57.654104119764149, -25.296458133918744 ], [ -57.65461660811301, -25.297127920779641 ], [ -57.655254262601808, -25.29805346987434 ], [ -57.655659786547268, -25.298651832835258 ], [ -57.656835450385323, -25.299154078145808 ], [ -57.6590669140515, -25.300487203307835 ], [ -57.661226490426216, -25.298824275513958 ], [ -57.661312780756916, -25.298688294384831 ], [ -57.661457259632748, -25.298783285020349 ], [ -57.661647762714288, -25.298856256241407 ], [ -57.661814408668796, -25.298954502741292 ], [ -57.661945759320133, -25.299010960627808 ], [ -57.662030986848663, -25.299070981123936 ], [ -57.662120161917436, -25.299177964201 ], [ -57.662212681965293, -25.299221173471473 ], [ -57.662401357793179, -25.299297508479594 ], [ -57.662680239860094, -25.299491807644642 ], [ -57.663460556343253, -25.299012670330246 ], [ -57.663830799246753, -25.299416955972298 ], [ -57.664077321663136, -25.299629974418632 ], [ -57.664411971154742, -25.299990163799542 ], [ -57.664365959227048, -25.300071231447596 ], [ -57.664443280559667, -25.300155866708021 ], [ -57.66449349479133, -25.30020604419466 ], [ -57.664755939206586, -25.300330273854865 ], [ -57.665027227917967, -25.300454463154423 ], [ -57.66517743497613, -25.300569366808283 ], [ -57.665331263430652, -25.300713978220298 ], [ -57.66545637144349, -25.300892725505665 ], [ -57.665622019544983, -25.301021825131279 ], [ -57.665716200242123, -25.301141972144897 ], [ -57.665878591291808, -25.301297363543707 ], [ -57.666010004903114, -25.301419072444133 ], [ -57.666108238066975, -25.301519913899241 ], [ -57.666220215113654, -25.301622081156783 ], [ -57.666339756029139, -25.301711726098311 ], [ -57.666390547084347, -25.301789194483973 ], [ -57.666474946061335, -25.301872061909503 ], [ -57.666600849640886, -25.30200885143223 ], [ -57.666628807738931, -25.302097523025633 ], [ -57.666695271034605, -25.302249844218967 ], [ -57.666754772547065, -25.302422445569359 ], [ -57.666765656241694, -25.30250943522033 ], [ -57.666833110292572, -25.302664286671398 ], [ -57.66688877131719, -25.302772548850665 ], [ -57.666929725618814, -25.302822789909971 ], [ -57.666978351446431, -25.302872582669419 ], [ -57.666933598614548, -25.302988278511592 ], [ -57.666888221954494, -25.30313140227851 ], [ -57.667015527486882, -25.303230166457439 ], [ -57.667352972324558, -25.303387583453464 ], [ -57.667529064737721, -25.303473938137415 ], [ -57.667650899383787, -25.303537324008115 ], [ -57.667836483407932, -25.303565545936717 ], [ -57.668034664992895, -25.303558835426202 ], [ -57.668303115498595, -25.303540181456608 ], [ -57.668560448171689, -25.303514710744079 ], [ -57.668784945838581, -25.30352576899325 ], [ -57.668671585068275, -25.302465221136735 ], [ -57.669059868646421, -25.301823674603742 ], [ -57.669455113781822, -25.301129329424672 ], [ -57.669684314894795, -25.300587439651665 ], [ -57.66993397493637, -25.299808010318301 ], [ -57.670202641430642, -25.29852721856339 ], [ -57.670394324889813, -25.297761243315779 ], [ -57.67066225675805, -25.296348539624084 ], [ -57.670860136673895, -25.295391259404074 ], [ -57.671079343074631, -25.294354732715913 ], [ -57.670930068852904, -25.293596903137679 ], [ -57.670769930377539, -25.293224793149989 ], [ -57.670558919470338, -25.292682363617914 ], [ -57.670519562196361, -25.29226310399164 ], [ -57.670360958764086, -25.2920951769289 ], [ -57.670423142243862, -25.291967785947445 ], [ -57.670459010983485, -25.29183044391155 ], [ -57.670472824868241, -25.291678552190174 ], [ -57.67047046625796, -25.291516079073848 ], [ -57.670450704502088, -25.291385648851421 ], [ -57.670426585176727, -25.291261897402382 ], [ -57.670422988599526, -25.291140716625588 ], [ -57.670486617265198, -25.290989930455538 ], [ -57.670535179567558, -25.290763297364915 ], [ -57.670500653054532, -25.290550764451964 ], [ -57.670283821535712, -25.290221699850928 ], [ -57.670303998335342, -25.290071585268919 ], [ -57.670371244127629, -25.289933076607447 ], [ -57.670473706214459, -25.289833504732428 ], [ -57.670533750611447, -25.289642838759573 ], [ -57.670481621295792, -25.289374445543476 ], [ -57.670298789660031, -25.289133508800909 ], [ -57.67002725951879, -25.289089305238274 ], [ -57.669891944924046, -25.288960345147181 ], [ -57.669660374109455, -25.288177012539776 ], [ -57.669523073415789, -25.287776521261915 ], [ -57.669558998386414, -25.287636775237775 ], [ -57.669569714838076, -25.287490090013133 ], [ -57.669497230429876, -25.287401646141991 ], [ -57.669279507100299, -25.287230858754249 ], [ -57.668922703623146, -25.287010773815293 ], [ -57.668610413774502, -25.286834783732342 ], [ -57.66803111585903, -25.285878012699357 ], [ -57.66797423861496, -25.285688763787626 ], [ -57.667841947085215, -25.285197157934139 ], [ -57.667386409193099, -25.284672781290485 ], [ -57.667340359127905, -25.284267025520709 ], [ -57.667252729711635, -25.283771795364469 ], [ -57.666977206660412, -25.283481643317877 ], [ -57.666788185973886, -25.282979400287914 ], [ -57.666701375670996, -25.282633601214417 ], [ -57.666700206161181, -25.282288636931085 ], [ -57.666744568825372, -25.282079024294621 ], [ -57.666606774455502, -25.281864439019895 ], [ -57.666244895435298, -25.281811280872748 ], [ -57.665970276750123, -25.281685500493246 ], [ -57.665789766274571, -25.281235519579564 ], [ -57.665475727092542, -25.281071943444623 ], [ -57.665024624911396, -25.281074592208984 ], [ -57.66461558410461, -25.280912056418956 ], [ -57.664254521998274, -25.280505226356073 ], [ -57.66388566393217, -25.280175639125439 ], [ -57.663278471304032, -25.279842140377355 ], [ -57.663160265445356, -25.279765463854964 ], [ -57.663035485855978, -25.279487078425827 ], [ -57.662917091013732, -25.279375534500751 ], [ -57.662780812034832, -25.279363833764641 ], [ -57.662637869630771, -25.279409166103509 ], [ -57.662498636488564, -25.27928126930702 ], [ -57.662402752816426, -25.278989312762505 ], [ -57.661871023503025, -25.278426336318109 ], [ -57.661466137061105, -25.27801720501504 ], [ -57.661037371288074, -25.277750143232193 ], [ -57.660248794381907, -25.277302877485297 ], [ -57.659672199628353, -25.277051416413705 ], [ -57.659229852154418, -25.27680433455421 ], [ -57.658929820511027, -25.27653419985263 ], [ -57.65878678123314, -25.276422762502293 ], [ -57.6585425957011, -25.276349134154309 ], [ -57.65815335745021, -25.276298568471454 ], [ -57.657563332108921, -25.276094479852095 ], [ -57.657151229717705, -25.275867181462456 ], [ -57.656522217398653, -25.275543714466611 ], [ -57.656179439901877, -25.27547301219829 ], [ -57.655864682716214, -25.275441784616138 ], [ -57.655604903398554, -25.275501099043936 ], [ -57.655323760491648, -25.275442767100195 ], [ -57.655104198214019, -25.275377765957199 ], [ -57.654921092734284, -25.275180168576 ], [ -57.654814196217941, -25.27503046499492 ], [ -57.654693327846736, -25.274748184185285 ], [ -57.654359022073351, -25.274681703289847 ], [ -57.654126853788995, -25.27477700517392 ], [ -57.653912386377272, -25.27480097494967 ], [ -57.653742307938955, -25.274910318779796 ], [ -57.653502179530918, -25.275125042010867 ], [ -57.653292890353924, -25.275236118503258 ], [ -57.653151746205069, -25.275281361452972 ], [ -57.65299241611384, -25.275298596638912 ], [ -57.652525369820466, -25.275299893048352 ], [ -57.652103236951525, -25.275130494099134 ], [ -57.65180462409527, -25.275191408371612 ], [ -57.651632228067285, -25.275376428325881 ], [ -57.651383140735788, -25.275457804451872 ], [ -57.65122483048534, -25.275230795677864 ], [ -57.651310322317784, -25.275001386200614 ], [ -57.651525487785882, -25.274887940459379 ], [ -57.651767097901917, -25.274701254995147 ], [ -57.65199529596817, -25.274578755857632 ], [ -57.652147300856576, -25.274404533821116 ], [ -57.652150824420261, -25.273947392998096 ], [ -57.651934384187257, -25.273644503901942 ], [ -57.651609348704426, -25.273399064850882 ], [ -57.651202419307097, -25.27318247096515 ], [ -57.650959716806582, -25.272989568939153 ], [ -57.650605059303082, -25.272783595514944 ], [ -57.6498182078384, -25.27260192280059 ], [ -57.64872891330625, -25.272606714774476 ], [ -57.647762656502195, -25.272654156534688 ], [ -57.647190723264707, -25.272706669582444 ], [ -57.646802273454874, -25.272815357299983 ], [ -57.64649890571846, -25.272869993783715 ], [ -57.646208272101298, -25.272945678822115 ], [ -57.644902889752537, -25.273511859924437 ], [ -57.641478455874555, -25.275464157619872 ], [ -57.639327369693412, -25.275647855460939 ], [ -57.639342432228716, -25.275980302947971 ], [ -57.639353661217179, -25.276134982009996 ], [ -57.639425338057691, -25.276400524506567 ], [ -57.639442202932251, -25.276463001369613 ], [ -57.639508460378003, -25.276514816932565 ], [ -57.639644024360067, -25.276537911619286 ], [ -57.639730887567872, -25.276545429465973 ], [ -57.639812548964017, -25.276554549230156 ], [ -57.640127586124073, -25.276695279909209 ], [ -57.640766065278207, -25.27758456465628 ], [ -57.641310162913385, -25.278355841080231 ], [ -57.641737144908809, -25.2789792129368 ], [ -57.642226967344804, -25.279663885463687 ], [ -57.642634615511753, -25.280241550943234 ], [ -57.643169987960768, -25.281000227975277 ], [ -57.643904827846633, -25.28204222686918 ], [ -57.644699130686519, -25.283161325234271 ], [ -57.64544442671108, -25.284236490125309 ], [ -57.646205988326038, -25.285313103980588 ], [ -57.646978859019548, -25.286448903208505 ] ] ] ] } }
]
}
