<?xml version="1.0" encoding="utf-8"?>
<svg version="1.1" 
	 xmlns="http://www.w3.org/2000/svg" xmlns:xlink="http://www.w3.org/1999/xlink" x="0px" y="0px" width="113.39px"
	 height="113.39px" viewBox="0 0 113.39 113.39" enable-background="new 0 0 113.39 113.39" xml:space="preserve">
<switch>
	<g>
		<g>
			<path fill="#0d2563" d="M92.011,93.02V14.597L56.498,32.203H19.9c-8.603,0-15.648,7.042-15.648,15.649v11.913
				c0,8.606,7.045,15.651,15.648,15.651h0.405v23.761c0,2.876,2.349,5.217,5.217,5.217h0.238c2.869,0,5.217-2.341,5.217-5.217
				V75.416h25.52l0,0L92.011,93.02z"/>
			<path fill="#0d2563" d="M104.375,8.996c-0.585,0-1.148,0.108-1.669,0.304l0,0l-3.223,1.593V96.72l3.223,1.597l0,0
				c0.521,0.195,1.084,0.304,1.669,0.304c2.623,0,4.763-2.132,4.763-4.763V13.758C109.138,11.128,106.998,8.996,104.375,8.996z"/>
		</g>
	</g>
</switch>

</svg>
