<!DOCTYPE svg PUBLIC "-//W3C//DTD SVG 1.1//EN" "http://www.w3.org/Graphics/SVG/1.1/DTD/svg11.dtd" [
	<!ENTITY ns_extend "http://ns.adobe.com/Extensibility/1.0/">
	<!ENTITY ns_ai "http://ns.adobe.com/AdobeIllustrator/10.0/">
	<!ENTITY ns_graphs "http://ns.adobe.com/Graphs/1.0/">
]>
<svg version="1.1" id="Capa_1" xmlns:x="&ns_extend;" xmlns:i="&ns_ai;" xmlns:graph="&ns_graphs;"
	 xmlns="http://www.w3.org/2000/svg" xmlns:xlink="http://www.w3.org/1999/xlink" x="0px" y="0px" width="113.39px"
	 height="113.39px" viewBox="0 0 113.39 113.39" enable-background="new 0 0 113.39 113.39" xml:space="preserve">
<switch>
	<foreignObject requiredExtensions="&ns_ai;" x="0" y="0" width="1" height="1">
		<i:pgfRef  xlink:href="#adobe_illustrator_pgf">
		</i:pgfRef>
	</foreignObject>
	<g i:extraneous="self">
		<path fill="#0D2563" d="M56.698,2.838c-29.747,0-53.861,24.115-53.861,53.856c0,29.743,24.114,53.857,53.861,53.857
			c29.743,0,53.854-24.114,53.854-53.857C110.553,26.953,86.441,2.838,56.698,2.838z M92.008,35.128
			c-0.711,1.039-1.488,2.021-2.336,2.957c-0.625,0.702-1.293,1.348-1.969,1.998c-0.742,0.729-1.562,1.391-2.4,1.996
			c-0.197,0.148-0.283,0.319-0.277,0.57c0.012,0.571,0,1.153,0.006,1.735c0.012,1.656-0.129,3.3-0.334,4.944
			c-0.223,1.713-0.549,3.402-0.982,5.059c-0.576,2.237-1.336,4.419-2.264,6.542c-0.959,2.181-2.078,4.282-3.377,6.292
			c-0.984,1.495-2.062,2.934-3.213,4.315c-1.025,1.222-2.131,2.375-3.301,3.471c-1.881,1.747-3.913,3.312-6.1,4.659
			c-1.359,0.833-2.76,1.587-4.196,2.249c-1.798,0.845-3.65,1.53-5.555,2.078c-1.535,0.445-3.091,0.811-4.67,1.062
			c-1.367,0.229-2.74,0.423-4.136,0.445c-0.485,0-0.974,0.012-1.462,0.046c-1.256,0-2.512,0-3.771,0
			c-1.893-0.012-3.776-0.194-5.641-0.548c-1.978-0.365-3.925-0.856-5.834-1.507c-1.474-0.503-2.915-1.085-4.325-1.747
			c-1.516-0.708-2.971-1.519-4.393-2.398c-0.12-0.079-0.314-0.137-0.251-0.319c0.065-0.183,0.248-0.114,0.391-0.092
			c0.554,0.035,1.104,0.08,1.658,0.114c0.506,0.034,1.008,0.046,1.511,0.046c1.775-0.022,3.533-0.194,5.277-0.525
			c2.224-0.411,4.37-1.073,6.432-1.986c1.983-0.891,3.848-1.976,5.58-3.277c0.068-0.045,0.157-0.091,0.188-0.183
			c-0.037-0.068-0.103-0.045-0.157-0.057c-1.915-0.092-3.733-0.571-5.466-1.404c-1.199-0.583-2.31-1.302-3.306-2.181
			c-1.271-1.119-2.335-2.409-3.16-3.894c-0.408-0.742-0.742-1.496-1.033-2.284c-0.017-0.046-0.034-0.091-0.052-0.137
			c-0.088-0.309,0.012-0.434,0.332-0.377c0.842,0.126,1.687,0.217,2.54,0.206c1.062,0,2.112-0.126,3.177-0.377
			c-1.107-0.263-2.146-0.64-3.14-1.143c-1.676-0.833-3.137-1.975-4.382-3.368c-1.715-1.918-2.84-4.155-3.391-6.668
			c-0.206-0.925-0.303-1.872-0.334-2.809c0-0.046,0-0.092,0-0.126c0.011-0.422,0.128-0.502,0.496-0.319
			c0.212,0.114,0.414,0.229,0.625,0.319c1.521,0.708,3.114,1.153,4.79,1.279c0.098,0.011,0.191,0.057,0.309,0.011
			c-0.274-0.228-0.548-0.434-0.813-0.65c-1.388-1.165-2.523-2.523-3.408-4.11c-0.729-1.279-1.242-2.649-1.545-4.088
			c-0.183-0.854-0.299-1.71-0.302-2.577c-0.012-1.039,0.006-2.067,0.193-3.095c0.215-1.164,0.557-2.283,1.034-3.356
			c0.183-0.423,0.379-0.822,0.61-1.222c0.157-0.263,0.297-0.286,0.494-0.04c1.079,1.308,2.232,2.552,3.465,3.722
			c1.481,1.399,3.061,2.678,4.733,3.843c1.807,1.268,3.699,2.383,5.683,3.354c1.33,0.64,2.697,1.211,4.091,1.713
			c1.903,0.674,3.839,1.21,5.814,1.599c1.388,0.273,2.789,0.479,4.196,0.616c0.411,0.034,0.822,0.068,1.235,0.103
			c0.292,0.035,0.349-0.045,0.292-0.342c-0.234-1.199-0.3-2.398-0.243-3.608c0.077-1.722,0.474-3.377,1.147-4.976
			c0.543-1.272,1.25-2.454,2.124-3.517c0.802-0.981,1.718-1.861,2.742-2.604c1.514-1.096,3.175-1.872,4.977-2.352
			c0.881-0.24,1.781-0.309,2.688-0.331c0.148,0,0.297,0.022,0.439-0.034c0.365,0,0.728,0,1.093,0
			c0.434,0.057,0.871,0.068,1.303,0.068c0.826,0.034,1.617,0.229,2.402,0.457c1.707,0.514,3.27,1.312,4.68,2.397
			c0.535,0.411,1.061,0.845,1.523,1.342c0.154,0.165,0.316,0.211,0.537,0.165c1.924-0.422,3.787-1.005,5.588-1.798
			c1.031-0.439,2.027-0.942,2.992-1.508c0.092-0.051,0.197-0.114,0.303-0.04c0.105,0.086,0.062,0.206,0.031,0.303
			c-0.266,0.851-0.645,1.65-1.07,2.427c-0.482,0.867-1.057,1.679-1.707,2.432c-0.928,1.057-1.969,1.984-3.162,2.737
			c0.365-0.094,0.732-0.122,1.102-0.19c2.174-0.395,4.279-1.005,6.314-1.879c0.137-0.051,0.305-0.188,0.43-0.046
			C92.258,34.865,92.088,35.003,92.008,35.128z"/>
	</g>
</switch>
</svg>
